%YAML 1.1
%TAG !u! tag:unity3d.com,2011:
--- !u!1045 &1
EditorBuildSettings:
  m_ObjectHideFlags: 0
  serializedVersion: 2
  m_Scenes:
  - enabled: 1
    path: Assets/Scenes/StartScene.unity
    guid: 2cda990e2423bbf4892e6590ba056729
  - enabled: 1
    path: Assets/Scenes/TheHole.unity
    guid: 8ffa78ec0025401459d8bedcdace0254
  - enabled: 1
    path: Assets/Scenes/TheForest.unity
    guid: 3c9710859c7095b479358fefabb089d6
  - enabled: 1
    path: Assets/Scenes/TheCave.unity
    guid: c09f8c9d63c4e954cad9a3b52cc2fe4c
  - enabled: 1
    path: Assets/Scenes/TheTower.unity
    guid: 03b9c8691526619408ea2097d672e257
  m_configObjects: {}
  m_UseUCBPForAssetBundles: 0
